<?xml version="1.0" encoding="UTF-8"?>
<!DOCTYPE svg PUBLIC "-//W3C//DTD SVG 1.1//EN" "http://www.w3.org/Graphics/SVG/1.1/DTD/svg11.dtd">
<!-- Creator: CorelDRAW 2019 (64-Bit) -->
<svg xmlns="http://www.w3.org/2000/svg" xml:space="preserve" width="100px" height="100px" version="1.1" style="shape-rendering:geometricPrecision; text-rendering:geometricPrecision; image-rendering:optimizeQuality; fill-rule:evenodd; clip-rule:evenodd"
viewBox="0 0 100 100"
 xmlns:xlink="http://www.w3.org/1999/xlink"
 xmlns:xodm="http://www.corel.com/coreldraw/odm/2003">
 <defs>
  <style type="text/css">
   <![CDATA[
    .fil0 {fill:#FF6633}
    .fil1 {fill:#FF9933}
   ]]>
  </style>
 </defs>
 <g id="Layer_x0020_1">
  <metadata id="CorelCorpID_0Corel-Layer"/>
  <g id="_2242634641248">
   <path class="fil0" d="M50 23.12c14.85,0 26.88,12.03 26.88,26.88l23.12 0c0,-27.61 -22.39,-50 -50,-50 -27.62,0 -50,22.39 -50,50 0,27.61 22.38,50 50,50 13.67,0 26.74,-5.6 36.18,-15.49l-16.73 -15.95c-5.07,5.31 -12.1,8.32 -19.45,8.32 -14.85,0 -26.88,-12.03 -26.88,-26.88 0,-14.85 12.03,-26.88 26.88,-26.88z"/>
   <path class="fil1" d="M67.81 29.86c5.76,5.1 9.07,12.43 9.07,20.14l23.12 0c0,-14.33 -6.15,-27.97 -16.88,-37.46l-15.31 17.32z"/>
  </g>
 </g>
</svg>
