<?xml version="1.0" encoding="UTF-8"?>
<!DOCTYPE svg PUBLIC "-//W3C//DTD SVG 1.1//EN" "http://www.w3.org/Graphics/SVG/1.1/DTD/svg11.dtd">
<!-- Creator: CorelDRAW 2019 (64-Bit) -->
<svg xmlns="http://www.w3.org/2000/svg" xml:space="preserve" width="100px" height="100px" version="1.1" style="shape-rendering:geometricPrecision; text-rendering:geometricPrecision; image-rendering:optimizeQuality; fill-rule:evenodd; clip-rule:evenodd"
viewBox="0 0 100 100"
 xmlns:xlink="http://www.w3.org/1999/xlink"
 xmlns:xodm="http://www.corel.com/coreldraw/odm/2003">
 <defs>
  <style type="text/css">
   <![CDATA[
    .fil1 {fill:#990099}
    .fil0 {fill:#CC6699}
   ]]>
  </style>
 </defs>
 <g id="Layer_x0020_1">
  <metadata id="CorelCorpID_0Corel-Layer"/>
  <g id="_2206195165296">
   <rect class="fil0" transform="matrix(-0.0825026 -0.0825026 0.0825026 -0.0825026 81.3498 107.755)" width="1080.01" height="320" rx="160" ry="160"/>
   <rect class="fil1" transform="matrix(0.0825026 -0.0825026 0.0825026 0.0825026 -7.75379 81.3543)" width="1080.01" height="320" rx="160" ry="160"/>
  </g>
 </g>
</svg>
